code/simulation/qsim/ReactionTimer.msim.vcd
$comment
	File created using the following command:
		vcd file ReactionTimer.msim.vcd -direction
$end
$date
	Tue Dec 05 00:41:48 2023
$end
$version
	ModelSim Version 10.5b
$end
$timescale
	1ps
$end

$scope module lfsr_vhd_vec_tst $end
$var wire 1 ! CLK $end
$var wire 1 " enable $end
$var wire 1 # LFSR_Reg [7] $end
$var wire 1 $ LFSR_Reg [6] $end
$var wire 1 % LFSR_Reg [5] $end
$var wire 1 & LFSR_Reg [4] $end
$var wire 1 ' LFSR_Reg [3] $end
$var wire 1 ( LFSR_Reg [2] $end
$var wire 1 ) LFSR_Reg [1] $end
$var wire 1 * LFSR_Reg [0] $end

$scope module i1 $end
$var wire 1 + gnd $end
$var wire 1 , vcc $end
$var wire 1 - unknown $end
$var wire 1 . devoe $end
$var wire 1 / devclrn $end
$var wire 1 0 devpor $end
$var wire 1 1 ww_devoe $end
$var wire 1 2 ww_devclrn $end
$var wire 1 3 ww_devpor $end
$var wire 1 4 ww_enable $end
$var wire 1 5 ww_CLK $end
$var wire 1 6 ww_LFSR_Reg [7] $end
$var wire 1 7 ww_LFSR_Reg [6] $end
$var wire 1 8 ww_LFSR_Reg [5] $end
$var wire 1 9 ww_LFSR_Reg [4] $end
$var wire 1 : ww_LFSR_Reg [3] $end
$var wire 1 ; ww_LFSR_Reg [2] $end
$var wire 1 < ww_LFSR_Reg [1] $end
$var wire 1 = ww_LFSR_Reg [0] $end
$var wire 1 > \LessThan0~0clkctrl_INCLK_bus\ [3] $end
$var wire 1 ? \LessThan0~0clkctrl_INCLK_bus\ [2] $end
$var wire 1 @ \LessThan0~0clkctrl_INCLK_bus\ [1] $end
$var wire 1 A \LessThan0~0clkctrl_INCLK_bus\ [0] $end
$var wire 1 B \inCLK~clkctrl_INCLK_bus\ [3] $end
$var wire 1 C \inCLK~clkctrl_INCLK_bus\ [2] $end
$var wire 1 D \inCLK~clkctrl_INCLK_bus\ [1] $end
$var wire 1 E \inCLK~clkctrl_INCLK_bus\ [0] $end
$var wire 1 F \LessThan1~0clkctrl_INCLK_bus\ [3] $end
$var wire 1 G \LessThan1~0clkctrl_INCLK_bus\ [2] $end
$var wire 1 H \LessThan1~0clkctrl_INCLK_bus\ [1] $end
$var wire 1 I \LessThan1~0clkctrl_INCLK_bus\ [0] $end
$var wire 1 J \LFSR_Reg[0]~output_o\ $end
$var wire 1 K \LFSR_Reg[1]~output_o\ $end
$var wire 1 L \LFSR_Reg[2]~output_o\ $end
$var wire 1 M \LFSR_Reg[3]~output_o\ $end
$var wire 1 N \LFSR_Reg[4]~output_o\ $end
$var wire 1 O \LFSR_Reg[5]~output_o\ $end
$var wire 1 P \LFSR_Reg[6]~output_o\ $end
$var wire 1 Q \LFSR_Reg[7]~output_o\ $end
$var wire 1 R \CLK~input_o\ $end
$var wire 1 S \enable~input_o\ $end
$var wire 1 T \inCLK~combout\ $end
$var wire 1 U \inCLK~clkctrl_outclk\ $end
$var wire 1 V \instance1|Q~feeder_combout\ $end
$var wire 1 W \instance1|Q~q\ $end
$var wire 1 X \instance2|Q~feeder_combout\ $end
$var wire 1 Y \instance2|Q~q\ $end
$var wire 1 Z \instance3|Q~q\ $end
$var wire 1 [ \instance4|Q~q\ $end
$var wire 1 \ \instance5|Q~feeder_combout\ $end
$var wire 1 ] \instance5|Q~q\ $end
$var wire 1 ^ \instance6|Q~q\ $end
$var wire 1 _ \comb~0_combout\ $end
$var wire 1 ` \comb~1_combout\ $end
$var wire 1 a \instance0|Q~q\ $end
$var wire 1 b \LessThan0~0_combout\ $end
$var wire 1 c \LessThan0~0clkctrl_outclk\ $end
$var wire 1 d \LFSR_Reg[0]$latch~combout\ $end
$var wire 1 e \LFSR_Reg[1]$latch~combout\ $end
$var wire 1 f \LFSR_Reg[2]$latch~combout\ $end
$var wire 1 g \LFSR_Reg[3]$latch~combout\ $end
$var wire 1 h \instance7|Q~feeder_combout\ $end
$var wire 1 i \instance7|Q~q\ $end
$var wire 1 j \LessThan1~0_combout\ $end
$var wire 1 k \LessThan1~0clkctrl_outclk\ $end
$var wire 1 l \LFSR_Reg[4]$latch~combout\ $end
$var wire 1 m \LFSR_Reg[5]$latch~combout\ $end
$var wire 1 n \LFSR_Reg[6]$latch~combout\ $end
$var wire 1 o \LFSR_Reg[7]$latch~combout\ $end
$upscope $end
$upscope $end
$enddefinitions $end
#0
$dumpvars
0!
1"
0+
1,
x-
1.
1/
10
11
12
13
14
05
0J
0K
0L
0M
0N
0O
0P
0Q
0R
1S
0T
0U
0V
0W
0X
0Y
0Z
0[
0\
0]
0^
0_
0`
0a
0b
0c
0d
0e
0f
0g
0h
0i
0j
0k
0l
0m
0n
0o
06
07
08
09
0:
0;
0<
0=
1B
1C
1D
0E
1>
1?
1@
0A
1F
1G
1H
0I
0#
0$
0%
0&
0'
0(
0)
0*
$end
#5000
1!
15
1R
1T
1E
1`
1U
1a
1V
1d
1J
1=
1*
#10000
0!
05
0R
0T
0E
0`
0U
#15000
1!
15
1R
1T
1E
1`
1U
1W
1X
1e
1K
1<
1)
#20000
0!
05
0R
0T
0E
0`
0U
#25000
1!
15
1R
1T
1E
1Y
1`
1_
1f
1U
0`
1L
1;
1(
#30000
0!
05
0R
0T
0E
1`
0U
#35000
1!
15
1R
1T
1E
1Z
0`
0_
1b
1g
1U
1A
1`
1[
0a
1M
1c
0V
0d
1\
1l
1:
1'
1N
0J
19
0=
0*
1&
#40000
0!
05
0R
0T
0E
0`
0U
#45000
1!
15
1R
1T
1E
1`
1U
0W
1]
1a
1V
1_
1m
0X
0`
1O
18
1%
#50000
0!
05
0R
0T
0E
1`
0U
#55000
1!
15
1R
1T
1E
0Y
1^
0`
1h
1n
0b
1U
0A
1W
0a
0c
1P
0V
1X
1b
17
1A
0f
1$
1c
0L
0;
0(
#60000
0!
05
0R
0T
0E
1`
0U
#65000
1!
15
1R
1T
1E
1Y
0Z
0`
1i
1j
1o
0b
1U
1I
0A
0W
0[
0c
1Q
1k
0\
0l
0X
16
0e
1f
0g
1#
0N
09
0M
1L
0K
0&
0:
1;
0<
0)
1(
0'
#70000
0!
05
0R
0T
0E
1`
0U
#75000
1!
15
1R
1T
1E
0Y
1Z
0`
1g
0f
1U
1[
0]
0L
1M
0_
1\
0;
1:
1`
0(
1'
#80000
0!
05
0R
0T
0E
0`
0U
#85000
1!
15
1R
1T
1E
0Z
0^
1`
0h
0j
0g
1U
0I
0[
1]
1a
0M
0k
1V
1d
1_
1j
0\
0:
1I
0`
0n
0'
1k
1J
1=
0P
1*
07
0$
#90000
0!
05
0R
0T
0E
1`
0U
#95000
1!
15
1R
1T
1E
1^
0`
0i
0_
1h
0j
1U
0I
1`
1W
0]
0a
0k
0V
0d
1_
1X
1e
0`
0m
1n
0o
1K
0J
1<
0=
0Q
1P
0O
0*
1)
06
17
08
0%
1$
0#
#100000
0!
05
0R
0T
0E
1`
0U
#105000
1!
15
1R
1T
1E
1Y
0^
0`
1i
1o
0h
0n
1f
1U
0W
1L
0P
1Q
0X
0e
1;
07
16
1(
0$
1#
0K
0<
0)
#110000
0!
05
0R
0T
0E
1`
0U
#115000
1!
15
1R
1T
1E
0Y
1Z
0`
0i
0o
1g
0f
1U
1[
0L
1M
0Q
1\
1l
0;
1:
06
0(
1'
0#
1N
19
1&
#120000
0!
05
0R
0T
0E
1`
0U
#125000
1!
15
1R
1T
1E
0Z
0`
0_
0g
1U
1`
0[
1]
0M
1_
1m
0\
0l
0:
0`
0'
0N
1O
09
18
0&
1%
#130000
0!
05
0R
0T
0E
1`
0U
#135000
1!
15
1R
1T
1E
1^
0`
0_
1h
1n
1U
1`
0]
1P
1_
0m
17
0`
1$
0O
08
0%
#140000
0!
05
0R
0T
0E
1`
0U
#145000
1!
15
1R
1T
1E
0^
0`
1i
1o
0_
0h
0n
1U
1`
0P
1Q
07
16
0$
1#
#150000
0!
05
0R
0T
0E
0`
0U
#155000
1!
15
1R
1T
1E
1`
0i
0o
1U
1a
0Q
1V
1d
06
0#
1J
1=
1*
#160000
0!
05
0R
0T
0E
0`
0U
#165000
1!
15
1R
1T
1E
1`
1U
1W
1X
1e
1K
1<
1)
#170000
0!
05
0R
0T
0E
0`
0U
#175000
1!
15
1R
1T
1E
1Y
1`
1_
1f
1U
0`
1L
1;
1(
#180000
0!
05
0R
0T
0E
1`
0U
#185000
1!
15
1R
1T
1E
1Z
0`
0_
1b
1g
1U
1A
1`
1[
0a
1M
1c
0V
0d
1\
1l
1:
1'
1N
0J
19
0=
0*
1&
#190000
0!
05
0R
0T
0E
0`
0U
#195000
1!
15
1R
1T
1E
1`
1U
0W
1]
1a
1V
1_
1m
0X
0`
1O
18
1%
#200000
0!
05
0R
0T
0E
1`
0U
#205000
1!
15
1R
1T
1E
0Y
1^
0`
1h
1n
0b
1U
0A
1W
0a
0c
1P
0V
1X
1b
17
1A
0f
1$
1c
0L
0;
0(
#210000
0!
05
0R
0T
0E
1`
0U
#215000
1!
15
1R
1T
1E
1Y
0Z
0`
1i
1j
1o
0b
1U
1I
0A
0W
0[
0c
1Q
1k
0\
0l
0X
16
0e
1f
0g
1#
0N
09
0M
1L
0K
0&
0:
1;
0<
0)
1(
0'
#220000
0!
05
0R
0T
0E
1`
0U
#225000
1!
15
1R
1T
1E
0Y
1Z
0`
1g
0f
1U
1[
0]
0L
1M
0_
1\
0;
1:
1`
0(
1'
#230000
0!
05
0R
0T
0E
0`
0U
#235000
1!
15
1R
1T
1E
0Z
0^
1`
0h
0j
0g
1U
0I
0[
1]
1a
0M
0k
1V
1d
1_
1j
0\
0:
1I
0`
0n
0'
1k
1J
1=
0P
1*
07
0$
#240000
0!
05
0R
0T
0E
1`
0U
#245000
1!
15
1R
1T
1E
1^
0`
0i
0_
1h
0j
1U
0I
1`
1W
0]
0a
0k
0V
0d
1_
1X
1e
0`
0m
1n
0o
1K
0J
1<
0=
0Q
1P
0O
0*
1)
06
17
08
0%
1$
0#
#250000
0!
05
0R
0T
0E
1`
0U
#255000
1!
15
1R
1T
1E
1Y
0^
0`
1i
1o
0h
0n
1f
1U
0W
1L
0P
1Q
0X
0e
1;
07
16
1(
0$
1#
0K
0<
0)
#260000
0!
05
0R
0T
0E
1`
0U
#265000
1!
15
1R
1T
1E
0Y
1Z
0`
0i
0o
1g
0f
1U
1[
0L
1M
0Q
1\
1l
0;
1:
06
0(
1'
0#
1N
19
1&
#270000
0!
05
0R
0T
0E
1`
0U
#275000
1!
15
1R
1T
1E
0Z
0`
0_
0g
1U
1`
0[
1]
0M
1_
1m
0\
0l
0:
0`
0'
0N
1O
09
18
0&
1%
#280000
0!
05
0R
0T
0E
1`
0U
#285000
1!
15
1R
1T
1E
1^
0`
0_
1h
1n
1U
1`
0]
1P
1_
0m
17
0`
1$
0O
08
0%
#290000
0!
05
0R
0T
0E
1`
0U
#295000
1!
15
1R
1T
1E
0^
0`
1i
1o
0_
0h
0n
1U
1`
0P
1Q
07
16
0$
1#
#300000
0!
05
0R
0T
0E
0`
0U
#305000
1!
15
1R
1T
1E
1`
0i
0o
1U
1a
0Q
1V
1d
06
0#
1J
1=
1*
#310000
0!
05
0R
0T
0E
0`
0U
#315000
1!
15
1R
1T
1E
1`
1U
1W
1X
1e
1K
1<
1)
#320000
0!
05
0R
0T
0E
0`
0U
#325000
1!
15
1R
1T
1E
1Y
1`
1_
1f
1U
0`
1L
1;
1(
#330000
0!
05
0R
0T
0E
1`
0U
#335000
1!
15
1R
1T
1E
1Z
0`
0_
1b
1g
1U
1A
1`
1[
0a
1M
1c
0V
0d
1\
1l
1:
1'
1N
0J
19
0=
0*
1&
#340000
0!
05
0R
0T
0E
0`
0U
#345000
1!
15
1R
1T
1E
1`
1U
0W
1]
1a
1V
1_
1m
0X
0`
1O
18
1%
#350000
0!
05
0R
0T
0E
1`
0U
#355000
1!
15
1R
1T
1E
0Y
1^
0`
1h
1n
0b
1U
0A
1W
0a
0c
1P
0V
1X
1b
17
1A
0f
1$
1c
0L
0;
0(
#360000
0!
05
0R
0T
0E
1`
0U
#365000
1!
15
1R
1T
1E
1Y
0Z
0`
1i
1j
1o
0b
1U
1I
0A
0W
0[
0c
1Q
1k
0\
0l
0X
16
0e
1f
0g
1#
0N
09
0M
1L
0K
0&
0:
1;
0<
0)
1(
0'
#370000
0!
05
0R
0T
0E
1`
0U
#375000
1!
15
1R
1T
1E
0Y
1Z
0`
1g
0f
1U
1[
0]
0L
1M
0_
1\
0;
1:
1`
0(
1'
#380000
0!
05
0R
0T
0E
0`
0U
#385000
1!
15
1R
1T
1E
0Z
0^
1`
0h
0j
0g
1U
0I
0[
1]
1a
0M
0k
1V
1d
1_
1j
0\
0:
1I
0`
0n
0'
1k
1J
1=
0P
1*
07
0$
#390000
0!
05
0R
0T
0E
1`
0U
#395000
1!
15
1R
1T
1E
1^
0`
0i
0_
1h
0j
1U
0I
1`
1W
0]
0a
0k
0V
0d
1_
1X
1e
0`
0m
1n
0o
1K
0J
1<
0=
0Q
1P
0O
0*
1)
06
17
08
0%
1$
0#
#400000
0!
05
0R
0T
0E
1`
0U
#405000
1!
15
1R
1T
1E
1Y
0^
0`
1i
1o
0h
0n
1f
1U
0W
1L
0P
1Q
0X
0e
1;
07
16
1(
0$
1#
0K
0<
0)
#410000
0!
05
0R
0T
0E
1`
0U
#415000
1!
15
1R
1T
1E
0Y
1Z
0`
0i
0o
1g
0f
1U
1[
0L
1M
0Q
1\
1l
0;
1:
06
0(
1'
0#
1N
19
1&
#420000
0!
05
0R
0T
0E
1`
0U
#425000
1!
15
1R
1T
1E
0Z
0`
0_
0g
1U
1`
0[
1]
0M
1_
1m
0\
0l
0:
0`
0'
0N
1O
09
18
0&
1%
#430000
0!
05
0R
0T
0E
1`
0U
#435000
1!
15
1R
1T
1E
1^
0`
0_
1h
1n
1U
1`
0]
1P
1_
0m
17
0`
1$
0O
08
0%
#440000
0!
05
0R
0T
0E
1`
0U
#445000
1!
15
1R
1T
1E
0^
0`
1i
1o
0_
0h
0n
1U
1`
0P
1Q
07
16
0$
1#
#450000
0!
05
0R
0T
0E
0`
0U
#455000
1!
15
1R
1T
1E
1`
0i
0o
1U
1a
0Q
1V
1d
06
0#
1J
1=
1*
#460000
0!
05
0R
0T
0E
0`
0U
#465000
1!
15
1R
1T
1E
1`
1U
1W
1X
1e
1K
1<
1)
#470000
0!
05
0R
0T
0E
0`
0U
#475000
1!
15
1R
1T
1E
1Y
1`
1_
1f
1U
0`
1L
1;
1(
#480000
0!
05
0R
0T
0E
1`
0U
#485000
1!
15
1R
1T
1E
1Z
0`
0_
1b
1g
1U
1A
1`
1[
0a
1M
1c
0V
0d
1\
1l
1:
1'
1N
0J
19
0=
0*
1&
#490000
0!
05
0R
0T
0E
0`
0U
#495000
1!
15
1R
1T
1E
1`
1U
0W
1]
1a
1V
1_
1m
0X
0`
1O
18
1%
#500000
0!
05
0R
0T
0E
1`
0U
#505000
1!
15
1R
1T
1E
0Y
1^
0`
1h
1n
0b
1U
0A
1W
0a
0c
1P
0V
1X
1b
17
1A
0f
1$
1c
0L
0;
0(
#510000
0!
05
0R
0T
0E
1`
0U
#515000
1!
15
1R
1T
1E
1Y
0Z
0`
1i
1j
1o
0b
1U
1I
0A
0W
0[
0c
1Q
1k
0\
0l
0X
16
0e
1f
0g
1#
0N
09
0M
1L
0K
0&
0:
1;
0<
0)
1(
0'
#520000
0!
05
0R
0T
0E
1`
0U
#525000
1!
15
1R
1T
1E
0Y
1Z
0`
1g
0f
1U
1[
0]
0L
1M
0_
1\
0;
1:
1`
0(
1'
#530000
0!
05
0R
0T
0E
0`
0U
#535000
1!
15
1R
1T
1E
0Z
0^
1`
0h
0j
0g
1U
0I
0[
1]
1a
0M
0k
1V
1d
1_
1j
0\
0:
1I
0`
0n
0'
1k
1J
1=
0P
1*
07
0$
#540000
0!
05
0R
0T
0E
1`
0U
#545000
1!
15
1R
1T
1E
1^
0`
0i
0_
1h
0j
1U
0I
1`
1W
0]
0a
0k
0V
0d
1_
1X
1e
0`
0m
1n
0o
1K
0J
1<
0=
0Q
1P
0O
0*
1)
06
17
08
0%
1$
0#
#550000
0!
05
0R
0T
0E
1`
0U
#555000
1!
15
1R
1T
1E
1Y
0^
0`
1i
1o
0h
0n
1f
1U
0W
1L
0P
1Q
0X
0e
1;
07
16
1(
0$
1#
0K
0<
0)
#560000
0!
05
0R
0T
0E
1`
0U
#565000
1!
15
1R
1T
1E
0Y
1Z
0`
0i
0o
1g
0f
1U
1[
0L
1M
0Q
1\
1l
0;
1:
06
0(
1'
0#
1N
19
1&
#570000
0!
05
0R
0T
0E
1`
0U
#575000
1!
15
1R
1T
1E
0Z
0`
0_
0g
1U
1`
0[
1]
0M
1_
1m
0\
0l
0:
0`
0'
0N
1O
09
18
0&
1%
#580000
0!
05
0R
0T
0E
1`
0U
#585000
1!
15
1R
1T
1E
1^
0`
0_
1h
1n
1U
1`
0]
1P
1_
0m
17
0`
1$
0O
08
0%
#590000
0!
05
0R
0T
0E
1`
0U
#595000
1!
15
1R
1T
1E
0^
0`
1i
1o
0_
0h
0n
1U
1`
0P
1Q
07
16
0$
1#
#600000
0!
05
0R
0T
0E
0`
0U
#605000
1!
15
1R
1T
1E
1`
0i
0o
1U
1a
0Q
1V
1d
06
0#
1J
1=
1*
#610000
0!
05
0R
0T
0E
0`
0U
#615000
1!
15
1R
1T
1E
1`
1U
1W
1X
1e
1K
1<
1)
#620000
0!
05
0R
0T
0E
0`
0U
#625000
1!
15
1R
1T
1E
1Y
1`
1_
1f
1U
0`
1L
1;
1(
#630000
0!
05
0R
0T
0E
1`
0U
#635000
1!
15
1R
1T
1E
1Z
0`
0_
1b
1g
1U
1A
1`
1[
0a
1M
1c
0V
0d
1\
1l
1:
1'
1N
0J
19
0=
0*
1&
#640000
0!
05
0R
0T
0E
0`
0U
#645000
1!
15
1R
1T
1E
1`
1U
0W
1]
1a
1V
1_
1m
0X
0`
1O
18
1%
#650000
0!
05
0R
0T
0E
1`
0U
#655000
1!
15
1R
1T
1E
0Y
1^
0`
1h
1n
0b
1U
0A
1W
0a
0c
1P
0V
1X
1b
17
1A
0f
1$
1c
0L
0;
0(
#660000
0!
05
0R
0T
0E
1`
0U
#665000
1!
15
1R
1T
1E
1Y
0Z
0`
1i
1j
1o
0b
1U
1I
0A
0W
0[
0c
1Q
1k
0\
0l
0X
16
0e
1f
0g
1#
0N
09
0M
1L
0K
0&
0:
1;
0<
0)
1(
0'
#670000
0!
05
0R
0T
0E
1`
0U
#675000
1!
15
1R
1T
1E
0Y
1Z
0`
1g
0f
1U
1[
0]
0L
1M
0_
1\
0;
1:
1`
0(
1'
#680000
0!
05
0R
0T
0E
0`
0U
#685000
1!
15
1R
1T
1E
0Z
0^
1`
0h
0j
0g
1U
0I
0[
1]
1a
0M
0k
1V
1d
1_
1j
0\
0:
1I
0`
0n
0'
1k
1J
1=
0P
1*
07
0$
#690000
0!
05
0R
0T
0E
1`
0U
#695000
1!
15
1R
1T
1E
1^
0`
0i
0_
1h
0j
1U
0I
1`
1W
0]
0a
0k
0V
0d
1_
1X
1e
0`
0m
1n
0o
1K
0J
1<
0=
0Q
1P
0O
0*
1)
06
17
08
0%
1$
0#
#700000
0!
05
0R
0T
0E
1`
0U
#705000
1!
15
1R
1T
1E
1Y
0^
0`
1i
1o
0h
0n
1f
1U
0W
1L
0P
1Q
0X
0e
1;
07
16
1(
0$
1#
0K
0<
0)
#710000
0!
05
0R
0T
0E
1`
0U
#715000
1!
15
1R
1T
1E
0Y
1Z
0`
0i
0o
1g
0f
1U
1[
0L
1M
0Q
1\
1l
0;
1:
06
0(
1'
0#
1N
19
1&
#720000
0!
05
0R
0T
0E
1`
0U
#725000
1!
15
1R
1T
1E
0Z
0`
0_
0g
1U
1`
0[
1]
0M
1_
1m
0\
0l
0:
0`
0'
0N
1O
09
18
0&
1%
#730000
0!
05
0R
0T
0E
1`
0U
#735000
1!
15
1R
1T
1E
1^
0`
0_
1h
1n
1U
1`
0]
1P
1_
0m
17
0`
1$
0O
08
0%
#740000
0!
05
0R
0T
0E
1`
0U
#745000
1!
15
1R
1T
1E
0^
0`
1i
1o
0_
0h
0n
1U
1`
0P
1Q
07
16
0$
1#
#750000
0!
05
0R
0T
0E
0`
0U
#755000
1!
15
1R
1T
1E
1`
0i
0o
1U
1a
0Q
1V
1d
06
0#
1J
1=
1*
#760000
0!
05
0R
0T
0E
0`
0U
#765000
1!
15
1R
1T
1E
1`
1U
1W
1X
1e
1K
1<
1)
#770000
0!
05
0R
0T
0E
0`
0U
#775000
1!
15
1R
1T
1E
1Y
1`
1_
1f
1U
0`
1L
1;
1(
#780000
0!
05
0R
0T
0E
1`
0U
#785000
1!
15
1R
1T
1E
1Z
0`
0_
1b
1g
1U
1A
1`
1[
0a
1M
1c
0V
0d
1\
1l
1:
1'
1N
0J
19
0=
0*
1&
#790000
0!
05
0R
0T
0E
0`
0U
#795000
1!
15
1R
1T
1E
1`
1U
0W
1]
1a
1V
1_
1m
0X
0`
1O
18
1%
#800000
0!
05
0R
0T
0E
1`
0U
#805000
1!
15
1R
1T
1E
0Y
1^
0`
1h
1n
0b
1U
0A
1W
0a
0c
1P
0V
1X
1b
17
1A
0f
1$
1c
0L
0;
0(
#810000
0!
05
0R
0T
0E
1`
0U
#815000
1!
15
1R
1T
1E
1Y
0Z
0`
1i
1j
1o
0b
1U
1I
0A
0W
0[
0c
1Q
1k
0\
0l
0X
16
0e
1f
0g
1#
0N
09
0M
1L
0K
0&
0:
1;
0<
0)
1(
0'
#820000
0!
05
0R
0T
0E
1`
0U
#825000
1!
15
1R
1T
1E
0Y
1Z
0`
1g
0f
1U
1[
0]
0L
1M
0_
1\
0;
1:
1`
0(
1'
#830000
0!
05
0R
0T
0E
0`
0U
#835000
1!
15
1R
1T
1E
0Z
0^
1`
0h
0j
0g
1U
0I
0[
1]
1a
0M
0k
1V
1d
1_
1j
0\
0:
1I
0`
0n
0'
1k
1J
1=
0P
1*
07
0$
#840000
0!
05
0R
0T
0E
1`
0U
#845000
1!
15
1R
1T
1E
1^
0`
0i
0_
1h
0j
1U
0I
1`
1W
0]
0a
0k
0V
0d
1_
1X
1e
0`
0m
1n
0o
1K
0J
1<
0=
0Q
1P
0O
0*
1)
06
17
08
0%
1$
0#
#850000
0!
05
0R
0T
0E
1`
0U
#855000
1!
15
1R
1T
1E
1Y
0^
0`
1i
1o
0h
0n
1f
1U
0W
1L
0P
1Q
0X
0e
1;
07
16
1(
0$
1#
0K
0<
0)
#860000
0!
05
0R
0T
0E
1`
0U
#865000
1!
15
1R
1T
1E
0Y
1Z
0`
0i
0o
1g
0f
1U
1[
0L
1M
0Q
1\
1l
0;
1:
06
0(
1'
0#
1N
19
1&
#870000
0!
05
0R
0T
0E
1`
0U
#875000
1!
15
1R
1T
1E
0Z
0`
0_
0g
1U
1`
0[
1]
0M
1_
1m
0\
0l
0:
0`
0'
0N
1O
09
18
0&
1%
#880000
0!
05
0R
0T
0E
1`
0U
#885000
1!
15
1R
1T
1E
1^
0`
0_
1h
1n
1U
1`
0]
1P
1_
0m
17
0`
1$
0O
08
0%
#890000
0!
05
0R
0T
0E
1`
0U
#895000
1!
15
1R
1T
1E
0^
0`
1i
1o
0_
0h
0n
1U
1`
0P
1Q
07
16
0$
1#
#900000
0!
05
0R
0T
0E
0`
0U
#905000
1!
15
1R
1T
1E
1`
0i
0o
1U
1a
0Q
1V
1d
06
0#
1J
1=
1*
#910000
0!
05
0R
0T
0E
0`
0U
#915000
1!
15
1R
1T
1E
1`
1U
1W
1X
1e
1K
1<
1)
#920000
0!
05
0R
0T
0E
0`
0U
#925000
1!
15
1R
1T
1E
1Y
1`
1_
1f
1U
0`
1L
1;
1(
#930000
0!
05
0R
0T
0E
1`
0U
#935000
1!
15
1R
1T
1E
1Z
0`
0_
1b
1g
1U
1A
1`
1[
0a
1M
1c
0V
0d
1\
1l
1:
1'
1N
0J
19
0=
0*
1&
#940000
0!
05
0R
0T
0E
0`
0U
#945000
1!
15
1R
1T
1E
1`
1U
0W
1]
1a
1V
1_
1m
0X
0`
1O
18
1%
#950000
0!
05
0R
0T
0E
1`
0U
#955000
1!
15
1R
1T
1E
0Y
1^
0`
1h
1n
0b
1U
0A
1W
0a
0c
1P
0V
1X
1b
17
1A
0f
1$
1c
0L
0;
0(
#960000
0!
05
0R
0T
0E
1`
0U
#965000
1!
15
1R
1T
1E
1Y
0Z
0`
1i
1j
1o
0b
1U
1I
0A
0W
0[
0c
1Q
1k
0\
0l
0X
16
0e
1f
0g
1#
0N
09
0M
1L
0K
0&
0:
1;
0<
0)
1(
0'
#970000
0!
05
0R
0T
0E
1`
0U
#975000
1!
15
1R
1T
1E
0Y
1Z
0`
1g
0f
1U
1[
0]
0L
1M
0_
1\
0;
1:
1`
0(
1'
#980000
0!
05
0R
0T
0E
0`
0U
#985000
1!
15
1R
1T
1E
0Z
0^
1`
0h
0j
0g
1U
0I
0[
1]
1a
0M
0k
1V
1d
1_
1j
0\
0:
1I
0`
0n
0'
1k
1J
1=
0P
1*
07
0$
#990000
0!
05
0R
0T
0E
1`
0U
#995000
1!
15
1R
1T
1E
1^
0`
0i
0_
1h
0j
1U
0I
1`
1W
0]
0a
0k
0V
0d
1_
1X
1e
0`
0m
1n
0o
1K
0J
1<
0=
0Q
1P
0O
0*
1)
06
17
08
0%
1$
0#
